…
Attaching package: 'dplyr'

The following objects are masked from 'package:stats':

    filter, lag

The following objects are masked from 'package:base':

    intersect, setdiff, setequal, union

select: Pick Single Column by Name

select(gapminder, country)

# A tibble: 1,704 x 1
   country    
   <fct>      
 1 Afghanistan
 2 Afghanistan
 3 Afghanistan
 4 Afghanistan
 5 Afghanistan
 6 Afghanistan
 7 Afghanistan
 8 Afghanistan
 9 Afghanistan
10 Afghanistan
# … with 1,694 more rows

select: Pick Multiple Columns by Name

select(gapminder, country, continent, year)

# A tibble: 1,704 x 3
   country     continent  year
   <fct>       <fct>     <int>
 1 Afghanistan Asia       1952
 2 Afghanistan Asia       1957
 3 Afghanistan Asia       1962
 4 Afghanistan Asia       1967
 5 Afghanistan Asia       1972
 6 Afghanistan Asia       1977
 7 Afghanistan Asia       1982
 8 Afghanistan Asia       1987
 9 Afghanistan Asia       1992
10 Afghanistan Asia       1997
# … with 1,694 more rows

select: Removing Single Column

select(gapminder, - gdpPercap)

# A tibble: 1,704 x 5
   country     continent  year lifeExp      pop
   <fct>       <fct>     <int>   <dbl>    <int>
 1 Afghanistan Asia       1952    28.8  8425333
 2 Afghanistan Asia       1957    30.3  9240934
 3 Afghanistan Asia       1962    32.0 10267083
 4 Afghanistan Asia       1967    34.0 11537966
 5 Afghanistan Asia       1972    36.1 13079460
 6 Afghanistan Asia       1977    38.4 14880372
 7 Afghanistan Asia       1982    39.9 12881816
 8 Afghanistan Asia       1987    40.8 13867957
 9 Afghanistan Asia       1992    41.7 16317921
10 Afghanistan Asia       1997    41.8 22227415
# … with 1,694 more rows

select: Removing Multiple Columns

select(gapminder, -c(pop,  gdpPercap))

# A tibble: 1,704 x 4
   country     continent  year lifeExp
   <fct>       <fct>     <int>   <dbl>
 1 Afghanistan Asia       1952    28.8
 2 Afghanistan Asia       1957    30.3
 3 Afghanistan Asia       1962    32.0
 4 Afghanistan Asia       1967    34.0
 5 Afghanistan Asia       1972    36.1
 6 Afghanistan Asia       1977    38.4
 7 Afghanistan Asia       1982    39.9
 8 Afghanistan Asia       1987    40.8
 9 Afghanistan Asia       1992    41.7
10 Afghanistan Asia       1997    41.8
# … with 1,694 more rows

select: Select Column Using : (Range)

select(gapminder, country:year)

# A tibble: 1,704 x 3
   country     continent  year
   <fct>       <fct>     <int>
 1 Afghanistan Asia       1952
 2 Afghanistan Asia       1957
 3 Afghanistan Asia       1962
 4 Afghanistan Asia       1967
 5 Afghanistan Asia       1972
 6 Afghanistan Asia       1977
 7 Afghanistan Asia       1982
 8 Afghanistan Asia       1987
 9 Afghanistan Asia       1992
10 Afghanistan Asia       1997
# … with 1,694 more rows

select: Select Single Column Using “contains”

select(gapminder, contains("c"))

# A tibble: 1,704 x 3
   country     continent gdpPercap
   <fct>       <fct>         <dbl>
 1 Afghanistan Asia           779.
 2 Afghanistan Asia           821.
 3 Afghanistan Asia           853.
 4 Afghanistan Asia           836.
 5 Afghanistan Asia           740.
 6 Afghanistan Asia           786.
 7 Afghanistan Asia           978.
 8 Afghanistan Asia           852.
 9 Afghanistan Asia           649.
10 Afghanistan Asia           635.
# … with 1,694 more rows

select: Select Multiple Columns Using “contains”

select(gapminder, contains("c"), contains('g'))

# A tibble: 1,704 x 3
   country     continent gdpPercap
   <fct>       <fct>         <dbl>
 1 Afghanistan Asia           779.
 2 Afghanistan Asia           821.
 3 Afghanistan Asia           853.
 4 Afghanistan Asia           836.
 5 Afghanistan Asia           740.
 6 Afghanistan Asia           786.
 7 Afghanistan Asia           978.
 8 Afghanistan Asia           852.
 9 Afghanistan Asia           649.
10 Afghanistan Asia           635.
# … with 1,694 more rows

select: Select Column Using “starts_with”

select(gapminder, starts_with('c'))

# A tibble: 1,704 x 2
   country     continent
   <fct>       <fct>    
 1 Afghanistan Asia     
 2 Afghanistan Asia     
 3 Afghanistan Asia     
 4 Afghanistan Asia     
 5 Afghanistan Asia     
 6 Afghanistan Asia     
 7 Afghanistan Asia     
 8 Afghanistan Asia     
 9 Afghanistan Asia     
10 Afghanistan Asia     
# … with 1,694 more rows

select: Select Column Using “ends_with”

select(gapminder, ends_with('p'))

# A tibble: 1,704 x 3
   lifeExp      pop gdpPercap
     <dbl>    <int>     <dbl>
 1    28.8  8425333      779.
 2    30.3  9240934      821.
 3    32.0 10267083      853.
 4    34.0 11537966      836.
 5    36.1 13079460      740.
 6    38.4 14880372      786.
 7    39.9 12881816      978.
 8    40.8 13867957      852.
 9    41.7 16317921      649.
10    41.8 22227415      635.
# … with 1,694 more rows
…
gapminder %>% 
  count()

# A tibble: 1 x 1
      n
  <int>
1  1704

Count Variable

gapminder %>% 
  count(country)

# A tibble: 142 x 2
   country         n
 * <fct>       <int>
 1 Afghanistan    12
 2 Albania        12
 3 Algeria        12
 4 Angola         12
 5 Argentina      12
 6 Australia      12
 7 Austria        12
 8 Bahrain        12
 9 Bangladesh     12
10 Belgium        12
# … with 132 more rows

Count and Sort

gapminder %>% 
  count(country, sort = TRUE)

# A tibble: 142 x 2
   country         n
   <fct>       <int>
 1 Afghanistan    12
 2 Albania        12
 3 Algeria        12
 4 Angola         12
 5 Argentina      12
 6 Australia      12
 7 Austria        12
 8 Bahrain        12
 9 Bangladesh     12
10 Belgium        12
# … with 132 more rows

Count Population

gapminder %>% 
  select(country, pop) %>% 
  count(country, wt = pop, sort = TRUE)

# A tibble: 142 x 2
   country                 n
   <fct>               <dbl>
 1 China         11497920623
 2 India          8413568878
 3 United States  2738534790
 4 Indonesia      1779874000
 5 Brazil         1467745520
 6 Japan          1341105696
 7 Pakistan       1124200629
 8 Bangladesh     1089064744
 9 Germany         930564520
10 Nigeria         884496214
# … with 132 more rows
…
filter: Inequality("!=")

filter(gapminder, country != "Bangladesh")

# A tibble: 1,692 x 6
   country     continent  year lifeExp      pop gdpPercap
   <fct>       <fct>     <int>   <dbl>    <int>     <dbl>
 1 Afghanistan Asia       1952    28.8  8425333      779.
 2 Afghanistan Asia       1957    30.3  9240934      821.
 3 Afghanistan Asia       1962    32.0 10267083      853.
 4 Afghanistan Asia       1967    34.0 11537966      836.
 5 Afghanistan Asia       1972    36.1 13079460      740.
 6 Afghanistan Asia       1977    38.4 14880372      786.
 7 Afghanistan Asia       1982    39.9 12881816      978.
 8 Afghanistan Asia       1987    40.8 13867957      852.
 9 Afghanistan Asia       1992    41.7 16317921      649.
10 Afghanistan Asia       1997    41.8 22227415      635.
# … with 1,682 more rows

filter: Greater(">")

filter(gapminder, gdpPercap > 800)

# A tibble: 1,460 x 6
   country     continent  year lifeExp      pop gdpPercap
   <fct>       <fct>     <int>   <dbl>    <int>     <dbl>
 1 Afghanistan Asia       1957    30.3  9240934      821.
 2 Afghanistan Asia       1962    32.0 10267083      853.
 3 Afghanistan Asia       1967    34.0 11537966      836.
 4 Afghanistan Asia       1982    39.9 12881816      978.
 5 Afghanistan Asia       1987    40.8 13867957      852.
 6 Afghanistan Asia       2007    43.8 31889923      975.
 7 Albania     Europe     1952    55.2  1282697     1601.
 8 Albania     Europe     1957    59.3  1476505     1942.
 9 Albania     Europe     1962    64.8  1728137     2313.
10 Albania     Europe     1967    66.2  1984060     2760.
# … with 1,450 more rows

filter: Greater or Equal(">=")

filter(gapminder, gdpPercap >= 800)

# A tibble: 1,460 x 6
   country     continent  year lifeExp      pop gdpPercap
   <fct>       <fct>     <int>   <dbl>    <int>     <dbl>
 1 Afghanistan Asia       1957    30.3  9240934      821.
 2 Afghanistan Asia       1962    32.0 10267083      853.
 3 Afghanistan Asia       1967    34.0 11537966      836.
 4 Afghanistan Asia       1982    39.9 12881816      978.
 5 Afghanistan Asia       1987    40.8 13867957      852.
 6 Afghanistan Asia       2007    43.8 31889923      975.
 7 Albania     Europe     1952    55.2  1282697     1601.
 8 Albania     Europe     1957    59.3  1476505     1942.
 9 Albania     Europe     1962    64.8  1728137     2313.
10 Albania     Europe     1967    66.2  1984060     2760.
# … with 1,450 more rows

filter: Less("<")

filter(gapminder, gdpPercap < 800)

# A tibble: 244 x 6
   country     continent  year lifeExp      pop gdpPercap
   <fct>       <fct>     <int>   <dbl>    <int>     <dbl>
 1 Afghanistan Asia       1952    28.8  8425333      779.
 2 Afghanistan Asia       1972    36.1 13079460      740.
 3 Afghanistan Asia       1977    38.4 14880372      786.
 4 Afghanistan Asia       1992    41.7 16317921      649.
 5 Afghanistan Asia       1997    41.8 22227415      635.
 6 Afghanistan Asia       2002    42.1 25268405      727.
 7 Bangladesh  Asia       1952    37.5 46886859      684.
 8 Bangladesh  Asia       1957    39.3 51365468      662.
 9 Bangladesh  Asia       1962    41.2 56839289      686.
10 Bangladesh  Asia       1967    43.5 62821884      721.
# … with 234 more rows

filter: Less or Equal("<=")

filter(gapminder, gdpPercap <= 800)

# A tibble: 244 x 6
   country     continent  year lifeExp      pop gdpPercap
   <fct>       <fct>     <int>   <dbl>    <int>     <dbl>
 1 Afghanistan Asia       1952    28.8  8425333      779.
 2 Afghanistan Asia       1972    36.1 13079460      740.
 3 Afghanistan Asia       1977    38.4 14880372      786.
 4 Afghanistan Asia       1992    41.7 16317921      649.
 5 Afghanistan Asia       1997    41.8 22227415      635.
 6 Afghanistan Asia       2002    42.1 25268405      727.
 7 Bangladesh  Asia       1952    37.5 46886859      684.
 8 Bangladesh  Asia       1957    39.3 51365468      662.
 9 Bangladesh  Asia       1962    41.2 56839289      686.
10 Bangladesh  Asia       1967    43.5 62821884      721.
# … with 234 more rows
…
filter(gapminder, country=="Bangladesh" & gdpPercap > 800)

# A tibble: 4 x 6
  country    continent  year lifeExp       pop gdpPercap
  <fct>      <fct>     <int>   <dbl>     <int>     <dbl>
1 Bangladesh Asia       1992    56.0 113704579      838.
2 Bangladesh Asia       1997    59.4 123315288      973.
3 Bangladesh Asia       2002    62.0 135656790     1136.
4 Bangladesh Asia       2007    64.1 150448339     1391.

filter: Logical OR("|")

filter(gapminder, country == "Bangladesh" |  gdpPercap > 800)

# A tibble: 1,468 x 6
   country     continent  year lifeExp      pop gdpPercap
   <fct>       <fct>     <int>   <dbl>    <int>     <dbl>
 1 Afghanistan Asia       1957    30.3  9240934      821.
 2 Afghanistan Asia       1962    32.0 10267083      853.
 3 Afghanistan Asia       1967    34.0 11537966      836.
 4 Afghanistan Asia       1982    39.9 12881816      978.
 5 Afghanistan Asia       1987    40.8 13867957      852.
 6 Afghanistan Asia       2007    43.8 31889923      975.
 7 Albania     Europe     1952    55.2  1282697     1601.
 8 Albania     Europe     1957    59.3  1476505     1942.
 9 Albania     Europe     1962    64.8  1728137     2313.
10 Albania     Europe     1967    66.2  1984060     2760.
# … with 1,458 more rows

filter: The "%in%" Operator

filter(gapminder, country %in% c("Bangladesh", "Australia"))

# A tibble: 24 x 6
   country   continent  year lifeExp      pop gdpPercap
   <fct>     <fct>     <int>   <dbl>    <int>     <dbl>
 1 Australia Oceania    1952    69.1  8691212    10040.
 2 Australia Oceania    1957    70.3  9712569    10950.
 3 Australia Oceania    1962    70.9 10794968    12217.
 4 Australia Oceania    1967    71.1 11872264    14526.
 5 Australia Oceania    1972    71.9 13177000    16789.
 6 Australia Oceania    1977    73.5 14074100    18334.
 7 Australia Oceania    1982    74.7 15184200    19477.
 8 Australia Oceania    1987    76.3 16257249    21889.
 9 Australia Oceania    1992    77.6 17481977    23425.
10 Australia Oceania    1997    78.8 18565243    26998.
# … with 14 more rows
…
